Debemos instalar Node JS
https://nodejs.org/es/download

--------------------------------------------------------------
Debemos verficar la instalación de Node JS.

Abrimos Microsoft PowerShell o CMD o Simbolo del sistema y ejecutamos el siguiente comando:

node -v

luego damos enter y debe aparecer la versión de Node JS que tenemos instalada.

--------------------------------------------------------------
Debemos instalar Visual Studio Code
https://code.visualstudio.com/download
